GLEI_LEI GLEI_LegalName Offshore_UniqueID Offshore_Description SimilarityScore
"1IE8VN30JCEQV1H4R804" "HSBC Bank USA, National Association" "182120" "HSBC Bank USA, N.A." "1.0"
"213800DBKZPRN38PQY03" "FIRST CHOICE HOLDINGS INC" "142771" "First Choice Capital Inc." "0.6"
"213800PPPZWQ71Z9B354" "HSBC PRIVATE BANK INTERNATIONAL" "182171" "HSBC Private Bank (Miami)" "0.6"
"4ME66GO1Q4T87C52WS37" "General Electric International, Inc." "216471" "General Services International Inc." "0.6"
"5493000090MYZRDRO111" "Dragon Investments LTD" "155876" "DRAGON ERA INVESTMENTS LIMITED" "0.75"
"5493000090MYZRDRO111" "Dragon Investments LTD" "217711" "Dragon Power International Investments Limited" "0.6"
"5493000664F1TZLEWU20" "Advanced Steel Technology, Inc" "138101" "Advanced Technology Universal Inc." "0.6"
"5493000664F1TZLEWU20" "Advanced Steel Technology, Inc" "210562" "ADVANCED CONNECTION TECHNOLOGY INC." "0.6"
"54930007O8HM0SE62D60" "Capital Financial Holdings, Inc." "176868" "CAPITAL HOLDINGS INC." "0.75"
"54930007O8HM0SE62D60" "Capital Financial Holdings, Inc." "216329" "Capital Technology Holdings Inc." "0.6"
"5493000ECYDXWUXQV084" "China Fire & Security Group, Inc." "210231" "CHINA FIRE PROTECTION GROUP INC." "0.6666666666666666"
"5493000J6TUT0YV0YJ18" "International Monetary Systems, Ltd." "209025" "International Marketing Systems Ltd." "0.6"
"5493000J6TUT0YV0YJ18" "International Monetary Systems, Ltd." "224493" "International Systems Group Ltd." "0.6"
"5493000YW418SRWKE353" "International Energy Corporation" "215343" "International Environmental Energy Corporation" "0.75"
"54930013R603NXN50314" "Chapel Oaks, Inc." "144211" "Chapel Inc" "0.6666666666666666"
"54930014042IA77XDX45" "Bryan Cave LLP" "177598" "Bryan Cave LLP" "1.0"
"54930014042IA77XDX45" "Bryan Cave LLP" "178529" "Bryan Cave LLP" "1.0"
"54930017E1BT51Y34260" "Seeker Tec International, Inc." "148450" "SEEKER INTERNATIONAL GROUP INC." "0.6"
"5493002O57F7BY82ZV18" "Sun International Limited" "136989" "SUN ENERGY INTERNATIONAL GROUP LIMITED" "0.6"
"5493002O57F7BY82ZV18" "Sun International Limited" "138823" "SUN ASCENT INTERNATIONAL LIMITED" "0.75"
"5493002O57F7BY82ZV18" "Sun International Limited" "139591" "SUN STANDARD INTERNATIONAL LIMITED" "0.75"
"5493002O57F7BY82ZV18" "Sun International Limited" "151798" "Sun & Moon International Ltd." "0.75"
"5493002O57F7BY82ZV18" "Sun International Limited" "160566" "SUN HONG INTERNATIONAL DEVELOPMENT LIMITED" "0.6"
"5493002O57F7BY82ZV18" "Sun International Limited" "167823" "Sun Cupid International (Holdings) Ltd" "0.6"
"5493002O57F7BY82ZV18" "Sun International Limited" "173833" "SUN CAN INTERNATIONAL LIMITED" "0.75"
"5493002O57F7BY82ZV18" "Sun International Limited" "174372" "SUN SUCCESS INTERNATIONAL CO., LTD." "0.6"
"5493002O57F7BY82ZV18" "Sun International Limited" "195965" "Sun Ten International Investment Limited" "0.6"
"5493002O57F7BY82ZV18" "Sun International Limited" "201680" "Sun Jet International Holdings Limited" "0.6"
"5493002O57F7BY82ZV18" "Sun International Limited" "217545" "Sun International Capital Ltd." "0.75"
"5493002O57F7BY82ZV18" "Sun International Limited" "226995" "SUN GLORY INTERNATIONAL HOLDINGS LIMITED" "0.6"
"5493002O57F7BY82ZV18" "Sun International Limited" "229356" "Sun Seekers International Ltd." "0.75"
"5493002WJDYPS0080Q89" "Industrial Dynamics Company, Ltd." "230373" "Industrial Plywood Company Ltd." "0.6"
"54930038G772ABW2J467" "International Rental Services, Inc." "206468" "International Rental Wholsalers Inc." "0.6"
"54930038G772ABW2J467" "International Rental Services, Inc." "212474" "International Reactor Services Inc." "0.6"
"5493003CT6MOCC6TEV50" "Universal Equities Corporation" "168195" "Universal Corporation" "0.6666666666666666"
"5493003PVCIGA21K0K42" "KPMG LLP" "183569" "KPMG LLP" "1.0"
"5493003QFE3GZ8M06H97" "Mercury Investments Limited Partnership" "148516" "MERCURY INVESTMENTS LIMITED" "0.75"
"5493003WIVRHWCSL4048" "Pleasant Ltd" "139015" "Pleasant Point Limited" "0.6666666666666666"
"5493004AA3U3DKSIKW83" "Advanced Oxygen Technologies, Inc." "203931" "Advanced Technologies Trading Inc." "0.6"
"5493004B6ALWRXD89Q07" "Phoenix Aviation Group Limited" "195610" "Phoenix Worldwide Group Ltd." "0.6"
"5493004JSQE4D6VT9V48" "P.S. Pibbs, Inc." "229341" "P.S. Development Inc." "0.6"
"5493004UZ725R03KX681" "Trans World International, Inc." "196790" "TRANS MERIDIAN INTERNATIONAL, INC." "0.6"
"5493004VL3ZT5K37YJ34" "North American Lighting, Inc." "219853" "North American Hardwood Inc." "0.6"
"54930055WXO1SUC1AH62" "Town and Country Bank" "168711" "Town and Country Limited" "0.6"
"54930061V8KSWGAX0T14" "Sterling Tours, Ltd" "168161" "Sterling Limited" "0.6666666666666666"
"54930067J0ZNOEBRW338" "New Corporation" "185219" "New Media Corporation" "0.6666666666666666"
"5493006LEOOGP0QI1N93" "Gold Coast Capital Limited" "135614" "GOLD COAST UNIVERSAL LIMITED" "0.6"
"5493006R8A82WCLXKY23" "Paragon Global Resources, Inc." "163254" "PARAGON GLOBAL CAPITAL INC." "0.6"
"5493007L6S47Q14SL582" "Triumph Group, Inc." "204941" "TRIUMPH FINANCIAL GROUP, INC." "0.75"
"5493007VRG5VQOUNX418" "Global Indemnity Group, Inc." "128916" "GLOBAL RESEARCH GROUP INC." "0.6"
"5493007VRG5VQOUNX418" "Global Indemnity Group, Inc." "151636" "GLOBAL EMPIRE GROUP INC." "0.6"
"5493007VRG5VQOUNX418" "Global Indemnity Group, Inc." "214641" "Global Technology Group Inc." "0.6"
"54930082GVHI5DKRDE61" "International Specialty Services, Inc." "212474" "International Reactor Services Inc." "0.6"
"549300843IFGIS3WT086" "Positron Corporation" "133367" "POSITRON OFFSHORE CORPORATION" "0.6666666666666666"
"54930087ZNG28JDWGT62" "D. J. Buckeye, Ltd." "206539" "D. J. Holdings Limited" "0.6"
"5493008BM92B2LHZWG65" "Advanced Integration Technology, Inc." "138101" "Advanced Technology Universal Inc." "0.6"
"5493008BM92B2LHZWG65" "Advanced Integration Technology, Inc." "210562" "ADVANCED CONNECTION TECHNOLOGY INC." "0.6"
"5493008JMLYLLM6UL192" "International Schools Services Inc." "212474" "International Reactor Services Inc." "0.6"
"5493008P8ITWIZ3XNN87" "Phoenix Loan Holdings, Inc." "215693" "Phoenix Select Holdings Inc." "0.6"
"5493009JIWPBVKVM6W47" "L & L Property Investments, L.L.C." "168806" "L & C Investments Ltd" "0.6"
"5493009O5Y8MJ7I1B613" "Advanced Lighting Technologies, Inc." "203931" "Advanced Technologies Trading Inc." "0.6"
"549300AHCJ3H1XQC6588" "Capital Management Group, Inc." "196229" "CAPITAL ADVISORS MANAGEMENT INC." "0.6"
"549300B6BYP3EB7D2137" "Harlow - HRK Sales & Marketing, Inc." "199857" "Harlow Marketing Inc." "0.6"
"549300B82XPM7DQ76D34" "Micro Imaging Technology, Inc." "229762" "Micro Electronic Technology Inc." "0.6"
"549300BM1RB2Q5C1A042" "CPW Properties, Ltd." "127063" "CPW Limited" "0.6666666666666666"
"549300BSQ0R4UZ5KX287" "Charles River Laboratories International, Inc." "173224" "Charles International Inc." "0.6"
"549300BZXZ66F6DTIF20" "Universal Corporation" "168195" "Universal Corporation" "1.0"
"549300C0SWFH8OLQDS29" "David W. Parsons" "179693" "David Parsons" "0.6666666666666666"
"549300COMYZT11UI1U45" "New Wave Energy Corp" "173002" "New Wave Technology Corp." "0.6"
"549300D0DD5A27OP2148" "Jupiter Island Group, Inc." "147052" "JUPITER GROUP (BVI), INC." "0.6"
"549300DCDIGEAL4LCB79" "Pinnacle Products International, Inc." "204693" "Pinnacle International Investments Inc." "0.6"
"549300DLYAENVR48CB24" "Universal Power Group, Inc." "139910" "UNIVERSAL POWER INC." "0.75"
"549300DPW0ZJSVMJJM83" "AVX Corporation" "151313" "AVX International Corporation" "0.6666666666666666"
"549300E7MP0BN7QTPT14" "J.E. DeWitt, Inc." "191951" "J.E. Group Inc." "0.6"
"549300ECXS1E018LQ755" "First Group, Inc." "222156" "First Global Group Holdings Inc." "0.6"
"549300ER9XS4TX12GI70" "Key Tours International Inc." "193804" "KEY SOLUTIONS INTERNATIONAL INC." "0.6"
"549300ESQM9N1LNERM75" "Advanced Green Technologies Inc." "203931" "Advanced Technologies Trading Inc." "0.6"
"549300ETSL7K1ZX05H30" "Global Telecom & Technology, Inc." "209888" "Global Energy Technology Inc." "0.6"
"549300ETSL7K1ZX05H30" "Global Telecom & Technology, Inc." "214641" "Global Technology Group Inc." "0.6"
"549300EXYFKPTTNNI394" "Oil Patch Group, Inc." "224560" "Oil Trading Group Inc." "0.6"
"549300F05QRUHYW8VS40" "L3 Group, Ltd." "163088" "L3 Holdings Ltd" "0.6"
"549300F8K47OG5X55T62" "Marubeni America Corporation" "184630" "Marubeni Corporation" "0.6666666666666666"
"549300FJ9G83EY5PQ662" "Universal Hydraulics International, Ltd." "176188" "UNIVERSAL ASSETS INTERNATIONAL LIMITED" "0.6"
"549300FJ9G83EY5PQ662" "Universal Hydraulics International, Ltd." "222203" "Universal International Books Ltd." "0.6"
"549300GMCODLR6JL1E89" "Diamond B Holdings, Ltd." "140131" "Diamond Finance Holdings Limited" "0.6"
"549300GMCODLR6JL1E89" "Diamond B Holdings, Ltd." "145447" "DIAMOND SOUND HOLDINGS LIMITED" "0.6"
"549300GMCODLR6JL1E89" "Diamond B Holdings, Ltd." "193818" "Diamond Lounge Holdings Ltd" "0.6"
"549300GMCODLR6JL1E89" "Diamond B Holdings, Ltd." "218923" "Diamond International Holdings Limited" "0.6"
"549300GS79K34IXJKN64" "American Traffic Solutions, Inc." "210651" "American Payroll Solutions, Inc." "0.6"
"549300H7JMYX96ZTZK40" "El Dorado Corporation" "135382" "El Dorado Tower Corporation" "0.75"
"549300HIGGJNDUIRD483" "Delta Group Electronics, Inc." "193738" "Delta Management Group, Inc." "0.6"
"549300HTGOY27K3MJ446" "JLM Realty Corporation" "157836" "JLM CORPORATION" "0.6666666666666666"
"549300HUGZJNR6PNMI28" "Global Futures & Forex, Ltd." "195062" "Global Forex Markets Ltd." "0.6"
"549300I1QVEWUN79E347" "Morgan Stanley Properties, Inc." "165049" "Morgan Worldwide Properties Inc." "0.6"
"549300I8U6QLK33OUH61" "Global Holdings, Inc." "151247" "GLOBAL PARTNER HOLDINGS INC." "0.75"
"549300IGFQIDUHDW0X66" "Young Family Enterprises, Ltd." "198758" "YOUNG & CHARM ENTERPRISES LTD." "0.6"
"549300IMP7HCD5URT044" "Sunrise Holdings Limited" "145058" "Sunrise Assets Holdings Limited" "0.75"
"549300IZGKQ32HHHB688" "S & C Electric Company" "171096" "S & C Company Limited" "0.6"
"549300JCNNKVXUGQ9Y88" "Global Harness Systems Inc." "197944" "GLOBAL PLAYER SYSTEMS INC." "0.6"
"549300JFEP24646ES467" "Golden Bay Investment, Ltd." "129371" "GOLDEN PLATINUM INVESTMENT LIMITED" "0.6"
"549300JFEP24646ES467" "Golden Bay Investment, Ltd." "132096" "GOLDEN LIBERTY INVESTMENT LIMITED" "0.6"
"549300JFEP24646ES467" "Golden Bay Investment, Ltd." "199571" "Golden Bay Development Limited" "0.6"
"549300JFEP24646ES467" "Golden Bay Investment, Ltd." "206088" "Golden Bay Securities Ltd." "0.6"
"549300JQWOKTHMPL1O15" "Aurora Trust" "169102" "Aurora (1997) Trust" "0.6666666666666666"
"549300K34ZVIS3WE2181" "Celtic Ocean International Inc." "228313" "Celtic International Investments Inc." "0.6"
"549300KQV7CUPKP6IX15" "Heritage Broadcasting Group, Inc" "136781" "HERITAGE DEVELOPMENT GROUP INC." "0.6"
"549300LFAZRKW015QW52" "MJP I, LTD" "141778" "MJP Limited" "0.6666666666666666"
"549300LKTNF2A3513M49" "Continental Industries Group, Inc." "167521" "Continental Finance Group Inc." "0.6"
"549300M9YOQLGWW1Y126" "Intrepid International, Inc." "217378" "Intrepid International Investments, Inc." "0.75"
"549300MXUSRB7EV15314" "Triple T Trading Ltd" "214753" "Triple International Trading Ltd." "0.6"
"549300N05RKJ6DX0BQ41" "Epstein Family Trust" "169778" "Epstein Family Irrevocable Trust" "0.75"
"549300NOPSIMGJNT8J31" "Corporation Service Company" "233332" "Corporation Service Company" "1.0"
"549300NOSB6NL0HZRO19" "Universal Electric Corporation" "168195" "Universal Corporation" "0.6666666666666666"
"549300OKRDLFAIAIZ836" "Eagle Aviation, Inc." "192362" "Eagle Aviation Group Inc." "0.75"
"549300OL8L3NU2E9YD25" "Park Investments, Ltd." "172473" "PARK SUN INVESTMENTS LIMITED" "0.75"
"549300P2TK7GQVBZHE86" "International Marine Industries, Inc." "189546" "International Marine Group Inc." "0.6"
"549300PKIKCG3T6KXD54" "Cambridge Investment Group, Inc." "226620" "Cambridge Capital Group Inc." "0.6"
"549300PPC421RM3TJ087" "Ocean Club Holdings Limited" "127639" "OCEAN SHORE HOLDINGS LIMITED" "0.6"
"549300PPC421RM3TJ087" "Ocean Club Holdings Limited" "138455" "OCEAN KINGDOM HOLDINGS LIMITED" "0.6"
"549300PPC421RM3TJ087" "Ocean Club Holdings Limited" "146009" "Ocean Deep Holdings Ltd" "0.6"
"549300PPC421RM3TJ087" "Ocean Club Holdings Limited" "159993" "OCEAN HEART HOLDINGS LIMITED" "0.6"
"549300PPC421RM3TJ087" "Ocean Club Holdings Limited" "206189" "Ocean Hill Holdings Limited" "0.6"
"549300PQR4PYDOJMQG27" "International Marketing Systems Ltd." "209025" "International Marketing Systems Ltd." "1.0"
"549300PQR4PYDOJMQG27" "International Marketing Systems Ltd." "224493" "International Systems Group Ltd." "0.6"
"549300PQR4PYDOJMQG27" "International Marketing Systems Ltd." "231615" "International Marketing Alliance Ltd." "0.6"
"549300Q07E78BP3EQ222" "Golden Star Enterprises Ltd." "144985" "Golden Resources Enterprises Ltd" "0.6"
"549300Q07E78BP3EQ222" "Golden Star Enterprises Ltd." "153185" "Golden Star Co., Ltd." "0.6"
"549300Q07E78BP3EQ222" "Golden Star Enterprises Ltd." "199302" "Golden Group Enterprises Ltd." "0.6"
"549300Q07E78BP3EQ222" "Golden Star Enterprises Ltd." "223447" "GOLDEN STAR BENEFIT LIMITED" "0.6"
"549300Q55O2CWL2RW006" "Golden West Trading, Inc." "218737" "Golden Access Trading Inc." "0.6"
"549300Q653NEEJ3L0P51" "Encore Energy Services, Inc." "214239" "Encore Management Services Inc." "0.6"
"549300QJ11O6NBRLHR41" "General Parts International, Inc." "216471" "General Services International Inc." "0.6"
"549300QM7C8CPNGHK905" "North American Communications, Inc." "219853" "North American Hardwood Inc." "0.6"
"549300RYC9NELN2ICA34" "National Securities Clearing Corporation" "216696" "National Securities Corporation" "0.75"
"549300S2TJ3WGO4WK192" "Genesis Health, Inc." "155289" "GENESIS INC." "0.6666666666666666"
"549300T89HRRCQKYJK57" "Pacifica Engineering, Inc." "149710" "PACIFICA INC." "0.6666666666666666"
"549300TEWDPHZE02OI68" "Shaw 2007 Family Trust" "169383" "Shaw Family Trust I" "0.6"
"549300TLGLRQHZV08Z69" "Broad Capital Group, Ltd." "166904" "Broad Meadows Group Ltd" "0.6"
"549300UKVVILWVXERK67" "Red Mesa Investments, Inc." "215862" "Red Orange Investments Inc." "0.6"
"549300V8PSJVCZ480U68" "Four Seasons Equipment, Inc." "219565" "Four Seasons International Inc." "0.6"
"549300VBDK316H41FD87" "Chen 1998 Family Trust" "156693" "CHEN FAMILY TRUST" "0.75"
"549300VODZXVM2G8E314" "International Concept Management, Inc." "134393" "International Environmental Management, Inc." "0.6"
"549300W6XU644LPDT196" "Global Resources International, Inc." "167067" "Global Wireless Resources Inc." "0.6"
"549300W6XU644LPDT196" "Global Resources International, Inc." "200326" "Global Giant International Inc." "0.6"
"549300WM75B2ZH11RM89" "Industrial Power Systems, Inc." "199327" "Industrial Power Technology Inc." "0.6"
"549300WV42PZKRAR7550" "NCR International, Inc." "209201" "NCR International Inc." "1.0"
"549300WV8G9BJO8GFL09" "Genesis Products, Inc." "155289" "GENESIS INC." "0.6666666666666666"
"549300X3PLESQC3XTS20" "Paris Investments, LTD." "232627" "PARIS EMPIRE INVESTMENTS LIMITED" "0.75"
"549300XA8FMMVYUI7N50" "Morgan, Lewis & Bockius LLP" "185000" "Morgan, Lewis & Bockius" "0.75"
"549300XEPZM1YHQLJU43" "White Oak Manor, Inc." "159167" "WHITE OAK INC." "0.75"
"549300XPHRPQ94SBIU73" "Orion Seafood International, Inc." "145657" "Orion International Group Inc." "0.6"
"549300XPJKNMU7WNC421" "i Brands Corporation" "144043" "I Corporation" "0.6666666666666666"
"549300XXD9YCW478KH70" "Geo Corrections Holdings, Inc" "211794" "Geo Investment Holdings Inc." "0.6"
"549300XZRLYWH4N2EY47" "International Marketing, Inc" "205934" "International Commercial Marketing Inc." "0.75"
"549300Y18ZINUX3XQ578" "Golden Bear Holdings, Ltd." "143321" "GOLDEN VISTA HOLDINGS LIMITED" "0.6"
"549300Y18ZINUX3XQ578" "Golden Bear Holdings, Ltd." "168112" "Golden Dragon Holdings Ltd" "0.6"
"549300Y18ZINUX3XQ578" "Golden Bear Holdings, Ltd." "168701" "Golden Land Holdings Ltd" "0.6"
"549300Y18ZINUX3XQ578" "Golden Bear Holdings, Ltd." "170386" "GOLDEN HOLDINGS LIMITED" "0.75"
"549300Y18ZINUX3XQ578" "Golden Bear Holdings, Ltd." "175051" "GOLDEN AGE HOLDINGS LTD." "0.6"
"549300Y18ZINUX3XQ578" "Golden Bear Holdings, Ltd." "175691" "GOLDEN ASIA HOLDINGS LIMITED" "0.6"
"549300Y18ZINUX3XQ578" "Golden Bear Holdings, Ltd." "227233" "Golden Arc Holdings Ltd." "0.6"
"549300YEBGBI4GDHN264" "Weston Inc." "140413" "Weston Capital Inc." "0.6666666666666666"
"549300YEBGBI4GDHN264" "Weston Inc." "202060" "Weston Research Inc." "0.6666666666666666"
"549300Z4QKG8XUZADK20" "Heritage Financial Group, Inc." "136781" "HERITAGE DEVELOPMENT GROUP INC." "0.6"
"549300ZICEKEGVF4D288" "Sprout Pharmaceuticals, Inc" "148612" "Sprout Inc." "0.6666666666666666"
"549300ZN4ORX0YUF0R95" "International Business Systems, Inc." "211431" "International Trading Business Inc." "0.6"
"5VVF8ENF5JE3D3XLEF32" "Blue Ridge Limited Partnership" "124943" "BLUE RIDGE FINANCIAL LTD" "0.6"
"76NA4I14SZCFAYMNSV04" "Illinois Tool Works Inc" "182461" "Illinois Tool Works Inc" "1.0"
"7H6GLXDRUGQFU57RNE97" "JPMorgan Chase Bank, National Association" "183179" "JPMorgan Chase Bank, N.A." "1.0"
"BTC0SCIXP2RYK2Z60C45" "American Payroll Institute, Inc." "210651" "American Payroll Solutions, Inc." "0.6"
"HV512WOF1UTHEJRG9G25" "The Green Meadow Trust" "167069" "The Green Point Trust" "0.6"
"IX05XKCONTEBR8CL9Q86" "American Capital, Ltd." "191485" "American Capital Holdings Ltd." "0.75"
"J1T8ZS5SZ3UEMMB00Q13" "Red River Investments, Inc." "215862" "Red Orange Investments Inc." "0.6"
"KRXXK3K6ZU5I4X4VTH24" "McKinsey & Company, Inc." "144116" "Mckinsey Inc." "0.6666666666666666"
"KUTUVC11L8A25EW5LZ75" "Mosaic Global Holdings Inc." "185015" "Mosaic Global Holdings Inc" "1.0"
"M3AFSEI8ZW2JEI726E06" "New World Fund, Inc." "193515" "New World Strategies, Inc." "0.6"
"M3AFSEI8ZW2JEI726E06" "New World Fund, Inc." "213434" "New World Inventions, Inc." "0.6"
"M4ZRS7E9USM0DKM0N876" "International Textile Group, Inc." "130868" "INTERNATIONAL CONNECTIONS GROUP INC." "0.6"
"M4ZRS7E9USM0DKM0N876" "International Textile Group, Inc." "189546" "International Marine Group Inc." "0.6"
"NYLWZIOY8PUNIT4JOE22" "Crown Holdings, Inc." "129003" "Crown Pacific (Overseas) Holdings Inc." "0.6"
"RN37QJVS1BV19MNIC295" "Transatlantic Holdings, Inc." "144549" "TransAtlantic Holdings Assets Inc." "0.75"
"THGK1EO5B5HK0JHQVZ90" "Standard Motor Products, Inc." "159973" "STANDARD MOTOR INDUSTRIAL INC." "0.6"
"U11RY7A7X2OG456C8587" "Progressive Investment Company, Inc." "223585" "Progressive Investment Holdings Inc." "0.6"
"ZWNSEVV087QDR82LWM55" "Global Income & Currency Fund Inc." "137608" "GLOBAL CURRENCY INC." "0.6"
